%YAML 1.1
%TAG !u! tag:unity3d.com,2011:
--- !u!114 &11400000
MonoBehaviour:
  m_ObjectHideFlags: 0
  m_CorrespondingSourceObject: {fileID: 0}
  m_PrefabInstance: {fileID: 0}
  m_PrefabAsset: {fileID: 0}
  m_GameObject: {fileID: 0}
  m_Enabled: 1
  m_EditorHideFlags: 0
  m_Script: {fileID: 11500000, guid: 4fa0bd4d62c4be5409d6eeff3dcacf94, type: 3}
  m_Name: Meat
  m_EditorClassIdentifier: 
  id: 22
  title: Meat
  icon: {fileID: 21300000, guid: b1969751cbba27c4785ae7386f4c7b7a, type: 3}
  ability: {fileID: 11400000, guid: 4027beb528791094290768804c0574a7, type: 2}
  removeAfterUse: 1
